[gd_resource type="StyleBoxFlat" format=2]

[resource]
bg_color = Color( 0.584314, 0.490196, 0.678431, 1 )
border_width_left = 2
border_width_top = 2
border_width_right = 2
border_width_bottom = 2
border_blend = true
corner_radius_top_left = 10
corner_radius_top_right = 10
corner_radius_bottom_right = 10
corner_radius_bottom_left = 10
